{
    "KPlugin": {
        "Authors": [
            {
                "Email": "albertvaka@gmail.com",
                "Name": "Albert Vaca Cintora"
            }
        ],
        "Description": "Remote control your music and videos",
        "Description[ar]": "تحكّم بالموسيقى والفيديو عن بعد",
        "Description[az]": "Musiqi və Videoların məsafədən idarə edilməsi",
        "Description[bg]": "Отдалечен контрол на музика и видео",
        "Description[ca@valencia]": "Comandament a distància de la vostra música i vídeos",
        "Description[ca]": "Comandament a distància de la vostra música i vídeos",
        "Description[cs]": "Ovládejte vzdáleně vaši hudbu a videa",
        "Description[da]": "Fjernbetjen din musik og videoer",
        "Description[de]": "Fernbedienung für Musik und Videos",
        "Description[el]": "Απομακρυσμένος έλεγχος της μουσικής σας και των βίντεο",
        "Description[en_GB]": "Remote control your music and videos",
        "Description[es]": "Controlar remotamente vídeos y música",
        "Description[et]": "Oma muusika ja videote kaugjuhtimine",
        "Description[eu]": "Kontrolatu urrunetik zure musika eta bideoak",
        "Description[fi]": "Kauko-ohjain musiikkiisi ja videoihisi",
        "Description[fr]": "Contrôlez à distance votre musique et vos vidéos",
        "Description[gl]": "Use o teléfono móbil como mando a distancia para música e vídeos",
        "Description[hu]": "A zene- és videolejátszás irányítása távolról",
        "Description[ia]": "Controlo remote de tu musica e videos",
        "Description[id]": "Kendalikan jarak jauh musik dan video Anda",
        "Description[is]": "Fjarstýra tónlistinni þinni og myndskeiðum",
        "Description[it]": "Controlla da remoto la tua musica e i video",
        "Description[ja]": "あなたの音楽や動画を外部からコントロール",
        "Description[ka]": "თქვენი მუსიკისა და ვიდეოების დაშორებული მართვა",
        "Description[ko]": "음악과 동영상 원격 제어",
        "Description[lt]": "Valdyti muziką ir vaizdo įrašus nuotoliniu būdu",
        "Description[nl]": "Op afstand bedienen van uw muziek en video's",
        "Description[nn]": "Fjernkontroller musikk og video",
        "Description[pl]": "Steruje odtwarzaczami tego urządzenia z innego urządzenia",
        "Description[pt]": "Comandar à distância a sua música e vídeos",
        "Description[pt_BR]": "Controle suas músicas e vídeos remotamente",
        "Description[ro]": "Controlați de la distanță muzica și videoclipurile",
        "Description[ru]": "Удалённое управление музыкой и видео",
        "Description[sk]": "Diaľkové ovládanie vašej hudby a videí",
        "Description[sl]": "Daljinski nadzor glasbe in videoposnetkov",
        "Description[sr@ijekavian]": "Даљински контролишите вашу музику и видео",
        "Description[sr@ijekavianlatin]": "Daljinski kontrolišite vašu muziku i video",
        "Description[sr@latin]": "Daljinski kontrolišite vašu muziku i video",
        "Description[sr]": "Даљински контролишите вашу музику и видео",
        "Description[sv]": "Fjärrstyr musik och videor",
        "Description[tr]": "Müzik ve videonuzu uzaktan kontrol edin",
        "Description[uk]": "Віддалене керування відтворенням музики та відео",
        "Description[x-test]": "xxRemote control your music and videosxx",
        "Description[zh_CN]": "远程控制您的音乐和视频",
        "Description[zh_TW]": "遠端控制您的音樂與影片",
        "EnabledByDefault": true,
        "Icon": "media-playback-start",
        "Id": "kdeconnect_mpriscontrol",
        "License": "GPL",
        "Name": "Multimedia control receiver",
        "Name[ar]": "مستقبل تحكّمات الوسائط المتعدّدة",
        "Name[az]": "Multimedia idarəsini qəbul etmək",
        "Name[bg]": "Мултимедиен контрол на приемник",
        "Name[ca@valencia]": "Receptor del comandament multimèdia",
        "Name[ca]": "Receptor del comandament multimèdia",
        "Name[cs]": "Dálkový ovladač multimédií",
        "Name[da]": "Modtager til multimediekontrol",
        "Name[de]": "Steuerung für Multimedia-Empfänger",
        "Name[el]": "Δέκτης ελέγχου πολυμέσων",
        "Name[en_GB]": "Multimedia control receiver",
        "Name[es]": "Receptor de control multimedia",
        "Name[et]": "Multimeedia juhtimine",
        "Name[eu]": "Multimedia-kontroladore hartzailea",
        "Name[fi]": "Multimediakauko-ohjain",
        "Name[fr]": "Receveur de contrôle multimédia",
        "Name[gl]": "Receptor de controis multimedia",
        "Name[hu]": "Multimédiavezérlő",
        "Name[ia]": "Receptor de controlo de multimedia",
        "Name[id]": "Penerima kendali multimedia",
        "Name[is]": "Móttaka margmiðlunarstýringa",
        "Name[it]": "Ricevitore di controllo multimediale",
        "Name[ka]": "მულტიმედიის კონტროლის მიმღები",
        "Name[ko]": "멀티미디어 제어 수신기",
        "Name[lt]": "Įvairialypės terpės valdymo gavėjas",
        "Name[nl]": "Ontvanger van bediening voor multimedia",
        "Name[nn]": "Mediefjernkontroll",
        "Name[pl]": "Sterowane odtwarzaczami z zewnątrz",
        "Name[pt]": "Receptor de controlo multimédia",
        "Name[pt_BR]": "Receptor de controle multimídia",
        "Name[ro]": "Receptor de control multimedia",
        "Name[ru]": "Управление мультимедиа",
        "Name[sk]": "Prijímač ovládača multimédií",
        "Name[sl]": "Sprejemnik nadzora večpredstavnosti",
        "Name[sr@ijekavian]": "Мултимедијалне контроле",
        "Name[sr@ijekavianlatin]": "Multimedijalne kontrole",
        "Name[sr@latin]": "Multimedijalne kontrole",
        "Name[sr]": "Мултимедијалне контроле",
        "Name[sv]": "Mottagare av multimediastyrning",
        "Name[tr]": "Çokluortam kontrol alıcısı",
        "Name[uk]": "Отримувач команд щодо керування мультимедійними функціями",
        "Name[x-test]": "xxMultimedia control receiverxx",
        "Name[zh_CN]": "多媒体控制接收器",
        "Name[zh_TW]": "多媒體控制接收器",
        "ServiceTypes": [
            "KdeConnect/Plugin"
        ],
        "Version": "0.1",
        "Website": "https://albertvaka.wordpress.com"
    },
    "X-KdeConnect-OutgoingPacketType": [
        "kdeconnect.mpris"
    ],
    "X-KdeConnect-SupportedPacketType": [
        "kdeconnect.mpris.request"
    ]
}
